Dostoyevsky-Report.knit
…
A Text Analysis of Dostoyevskys Books

By Genesis Data

I read Dostoyevskys books in the year of 1944, and I have no peace of mind since then

 The aim of this project is to find certain words that give clues about the general framework of Dostoyevskys books. The project can show the most used words in the book, their sentiments, plot them, bigrams, etc. 

1 - Crime and Punishment

Frequency of the words

## # A tibble: 9,990 x 3
##    word            n book                
##    <chr>       <int> <chr>               
##  1 crime        1016 Crime and Punishment
##  2 punishment    969 Crime and Punishment
##  3 967           967 Crime and Punishment
##  4 raskolnikov   725 Crime and Punishment
##  5 dont         465 Crime and Punishment
##  6 its          451 Crime and Punishment
##  7 time          385 Crime and Punishment
##  8 sonia         370 Crime and Punishment
##  9 thats        354 Crime and Punishment
## 10 razumihin     324 Crime and Punishment
## # ... with 9,980 more rows
…
Frequent words with sentiments

## # A tibble: 1,103 x 5
##    word         n book                 value weight
##    <chr>    <int> <chr>                <dbl>  <dbl>
##  1 crime     1016 Crime and Punishment    -3  -3048
##  2 cried      241 Crime and Punishment    -2   -482
##  3 lost        66 Crime and Punishment    -3   -198
##  4 afraid      90 Crime and Punishment    -2   -180
##  5 ill         85 Crime and Punishment    -2   -170
##  6 drunk       76 Crime and Punishment    -2   -152
##  7 angry       49 Crime and Punishment    -3   -147
##  8 nonsense    72 Crime and Punishment    -2   -144
##  9 terrible    48 Crime and Punishment    -3   -144
## 10 dead        47 Crime and Punishment    -3   -141
## # ... with 1,093 more rows
…
Bigrams

## # A tibble: 13,850 x 2
##    bigram                     n
##    <chr>                  <int>
##  1 katerina ivanovna        187
##  2 pyotr petrovitch         161
##  3 pulcheria alexandrovna   117
##  4 avdotya romanovna        107
##  5 rodion romanovitch        86
##  6 porfiry petrovitch        77
##  7 marfa petrovna            71
##  8 sofya semyonovna          64
##  9 amalia ivanovna           51
## 10 punishment chapter        39
## # ... with 13,840 more rows
…
2 - Notes from the Underground

Frequency of the words

## # A tibble: 4,549 x 3
##    word            n book                      
##    <chr>       <int> <chr>                     
##  1 underground   223 Notes from the Underground
##  2 notes         208 Notes from the Underground
##  3 203           203 Notes from the Underground
##  4 time           85 Notes from the Underground
##  5 love           74 Notes from the Underground
##  6 life           69 Notes from the Underground
##  7 simply         69 Notes from the Underground
##  8 dont          57 Notes from the Underground
##  9 zverkov        53 Notes from the Underground
## 10 its           51 Notes from the Underground
## # ... with 4,539 more rows
…
Frequent words with sentiments

## # A tibble: 671 x 5
##    word        n book                       value weight
##    <chr>   <int> <chr>                      <dbl>  <dbl>
##  1 stupid     36 Notes from the Underground    -2    -72
##  2 nasty      19 Notes from the Underground    -3    -57
##  3 cried      26 Notes from the Underground    -2    -52
##  4 hated      16 Notes from the Underground    -3    -48
##  5 ashamed    22 Notes from the Underground    -2    -44
##  6 die        14 Notes from the Underground    -3    -42
##  7 worse      14 Notes from the Underground    -3    -42
##  8 afraid     18 Notes from the Underground    -2    -36
##  9 tears      18 Notes from the Underground    -2    -36
## 10 bad        11 Notes from the Underground    -3    -33
## # ... with 661 more rows
…
Bigrams

## # A tibble: 2,580 x 2
##    bigram                  n
##    <chr>               <int>
##  1 anton antonitch         7
##  2 real life               7
##  3 dressing gown           6
##  4 stone wall              6
##  5 de paris                5
##  6 hotel de                5
##  7 lake como               5
##  8 wet snow                5
##  9 acute consciousness     4
## 10 cried zverkov           4
## # ... with 2,570 more rows
…
3 - The Brothers Karamazov

Frequency of the words

## # A tibble: 13,424 x 3
##    word          n book                  
##    <chr>     <int> <chr>                 
##  1 karamazov  1798 The Brothers Karamazov
##  2 brothers   1680 The Brothers Karamazov
##  3 1631       1631 The Brothers Karamazov
##  4 alyosha    1181 The Brothers Karamazov
##  5 mitya       815 The Brothers Karamazov
##  6 dont       788 The Brothers Karamazov
##  7 its        766 The Brothers Karamazov
##  8 father      729 The Brothers Karamazov
##  9 ivan        681 The Brothers Karamazov
## 10 time        678 The Brothers Karamazov
## # ... with 13,414 more rows
…
Frequent words with sentiments

## # A tibble: 1,286 x 5
##    word         n book                   value weight
##    <chr>    <int> <chr>                  <dbl>  <dbl>
##  1 cried      477 The Brothers Karamazov    -2   -954
##  2 afraid     169 The Brothers Karamazov    -2   -338
##  3 kill       104 The Brothers Karamazov    -3   -312
##  4 killed     103 The Brothers Karamazov    -3   -309
##  5 angry      102 The Brothers Karamazov    -3   -306
##  6 terrible   101 The Brothers Karamazov    -3   -303
##  7 murder     145 The Brothers Karamazov    -2   -290
##  8 prisoner   138 The Brothers Karamazov    -2   -276
##  9 dead        92 The Brothers Karamazov    -3   -276
## 10 tears      135 The Brothers Karamazov    -2   -270
## # ... with 1,276 more rows
…
Bigrams

## # A tibble: 24,080 x 2
##    bigram                   n
##    <chr>                <int>
##  1 brothers karamazov    1632
##  2 fyodor pavlovitch      252
##  3 dmitri fyodorovitch    167
##  4 katerina ivanovna      167
##  5 alexey fyodorovitch    111
##  6 nikolay parfenovitch    97
##  7 karamazov chapter       96
##  8 pyotr ilyitch           88
##  9 madame hohlakov         80
## 10 father zossima          78
## # ... with 24,070 more rows
…
4 - The House of the Dead

Frequency of the words

## # A tibble: 8,083 x 3
##    word          n book             
##    <chr>     <int> <chr>            
##  1 convicts    442 House of the Dead
##  2 convict     291 House of the Dead
##  3 time        256 House of the Dead
##  4 prison      250 House of the Dead
##  5 day         221 House of the Dead
##  6 prisoners   184 House of the Dead
##  7 money       145 House of the Dead
##  8 life        144 House of the Dead
##  9 people      142 House of the Dead
## 10 major       141 House of the Dead
## # ... with 8,073 more rows
…
Frequent words with sentiments

## # A tibble: 942 x 5
##    word          n book              value weight
##    <chr>     <int> <chr>             <dbl>  <dbl>
##  1 prison      250 House of the Dead    -2   -500
##  2 prisoners   184 House of the Dead    -2   -368
##  3 dead         88 House of the Dead    -3   -264
##  4 prisoner     80 House of the Dead    -2   -160
##  5 crime        39 House of the Dead    -3   -117
##  6 lost         39 House of the Dead    -3   -117
##  7 poor         54 House of the Dead    -2   -108
##  8 condemned    47 House of the Dead    -2    -94
##  9 drunk        45 House of the Dead    -2    -90
## 10 bad          30 House of the Dead    -3    -90
## # ... with 932 more rows
…
Bigrams

## # A tibble: 7,037 x 2
##    bigram                n
##    <chr>             <int>
##  1 convict prison      105
##  2 hard labour          61
##  3 isaiah fomitch       36
##  4 special section      29
##  5 akim akimitch        27
##  6 court yard           26
##  7 updated sunday       26
##  8 11 53                25
##  9 27 2016              25
## 10 dostoyevsky house    25
## # ... with 7,027 more rows
…
5 - The Idiot

Frequency of the words

## # A tibble: 10,675 x 3
##    word         n book     
##    <chr>    <int> <chr>    
##  1 prince    1787 The Idiot
##  2 idiot     1198 The Idiot
##  3 1149      1149 The Idiot
##  4 dont      512 The Idiot
##  5 aglaya     447 The Idiot
##  6 time       436 The Idiot
##  7 nastasia   388 The Idiot
##  8 rogojin    347 The Idiot
##  9 cried      337 The Idiot
## 10 gania      335 The Idiot
## # ... with 10,665 more rows
…
Frequent words with sentiments

## # A tibble: 1,129 x 5
##    word         n book      value weight
##    <chr>    <int> <chr>     <dbl>  <dbl>
##  1 idiot     1198 The Idiot    -3  -3594
##  2 cried      337 The Idiot    -2   -674
##  3 poor       122 The Idiot    -2   -244
##  4 angry       81 The Idiot    -3   -243
##  5 afraid     108 The Idiot    -2   -216
##  6 dreadful    70 The Idiot    -3   -210
##  7 mad         69 The Idiot    -3   -207
##  8 died        66 The Idiot    -3   -198
##  9 die         64 The Idiot    -3   -192
## 10 anxious     77 The Idiot    -2   -154
## # ... with 1,119 more rows
…
Bigrams

## # A tibble: 14,477 x 2
##    bigram                     n
##    <chr>                  <int>
##  1 nastasia philipovna      216
##  2 lizabetha prokofievna    167
##  3 evgenie pavlovitch       146
##  4 ha ha                     81
##  5 nina alexandrovna         63
##  6 aglaya ivanovna           59
##  7 gavrila ardalionovitch    58
##  8 thousand roubles          49
##  9 lef nicolaievitch         41
## 10 prince muishkin           34
## # ... with 14,467 more rows
…
6 - White Nights

Frequency of the words

## # A tibble: 2,158 x 3
##    word            n book        
##    <chr>       <int> <chr>       
##  1 nastenka      139 White Nights
##  2 dont          69 White Nights
##  3 love           68 White Nights
##  4 grandmother    57 White Nights
##  5 heart          54 White Nights
##  6 day            47 White Nights
##  7 its           43 White Nights
##  8 life           39 White Nights
##  9 time           38 White Nights
## 10 hand           37 White Nights
## # ... with 2,148 more rows
…
Frequent words with sentiments

## # A tibble: 389 x 5
##    word            n book         value weight
##    <chr>       <int> <chr>        <dbl>  <dbl>
##  1 cried          24 White Nights    -2    -48
##  2 tears          17 White Nights    -2    -34
##  3 poor           14 White Nights    -2    -28
##  4 sad            10 White Nights    -2    -20
##  5 interrupted     9 White Nights    -2    -18
##  6 dead            6 White Nights    -3    -18
##  7 lost            6 White Nights    -3    -18
##  8 blame           8 White Nights    -2    -16
##  9 crying          8 White Nights    -2    -16
## 10 timid           8 White Nights    -2    -16
## # ... with 379 more rows
…
Bigrams

## # A tibble: 1,088 x 2
##    bigram                   n
##    <chr>                <int>
##  1 NA NA                    7
##  2 dear nastenka            6
##  3 nastenka nastenka        6
##  4 listen nastenka          5
##  5 ah nastenka              4
##  6 answered nastenka        4
##  7 dont cry                4
##  8 interrupted laughing     4
##  9 spiders web             4
## 10 summer villa             4
## # ... with 1,078 more rows
…
